2020-11-29T21:44:39+00:00 fedora32.localdomain#00 I: Runner: processes
2020-11-29T21:44:39+00:00 fedora32.localdomain#00 I: Chooser: simple
2020-11-29T21:44:39+00:00 fedora32.localdomain#00 I: Configuration suite_name = "rna-transcription tests"
2020-11-29T21:44:39+00:00 fedora32.localdomain#00 I: Configuration cache_filename = "/home/vagrant/dev/exercism/ocaml/rna-transcription/_build/oUnit-$(suite_name).cache"
2020-11-29T21:44:39+00:00 fedora32.localdomain#00 I: Configuration run_gc_full_major = "true"
2020-11-29T21:44:39+00:00 fedora32.localdomain#00 I: Configuration display = "true"
2020-11-29T21:44:39+00:00 fedora32.localdomain#00 I: Configuration results_style_1_X = "false"
2020-11-29T21:44:39+00:00 fedora32.localdomain#00 I: Configuration testdata_dir = "none"
2020-11-29T21:44:39+00:00 fedora32.localdomain#00 I: Configuration health_check_interval = "1."
2020-11-29T21:44:39+00:00 fedora32.localdomain#00 I: Configuration verbose = "false"
2020-11-29T21:44:39+00:00 fedora32.localdomain#00 I: Configuration chooser = "simple"
2020-11-29T21:44:39+00:00 fedora32.localdomain#00 I: Configuration output_html_dir = "none"
2020-11-29T21:44:39+00:00 fedora32.localdomain#00 I: Configuration processes_kill_period = "5."
2020-11-29T21:44:39+00:00 fedora32.localdomain#00 I: Configuration runner = "processes"
2020-11-29T21:44:39+00:00 fedora32.localdomain#00 I: Configuration shards = "2"
2020-11-29T21:44:39+00:00 fedora32.localdomain#00 I: Configuration processes_grace_period = "5."
2020-11-29T21:44:39+00:00 fedora32.localdomain#00 I: Configuration log_encoding = "utf-8"
2020-11-29T21:44:39+00:00 fedora32.localdomain#00 I: Configuration output_junit_file = "none"
2020-11-29T21:44:39+00:00 fedora32.localdomain#00 I: Configuration ci = "false"
2020-11-29T21:44:39+00:00 fedora32.localdomain#00 I: Configuration output_file = "/home/vagrant/dev/exercism/ocaml/rna-transcription/_build/oUnit-$(suite_name)-$(shard_id).log"
2020-11-29T21:44:39+00:00 fedora32.localdomain#00 I: Using 2 workers maximum.
2020-11-29T21:44:39+00:00 fedora32.localdomain#00 I: Starting worker number fedora32.localdomain#01.
2020-11-29T21:44:39+00:00 fedora32.localdomain#00 I: Worker fedora32.localdomain#01 started.
2020-11-29T21:44:39+00:00 fedora32.localdomain#00 I: Starting worker number fedora32.localdomain#02.
2020-11-29T21:44:39+00:00 fedora32.localdomain#00 I: Worker fedora32.localdomain#02 started.
2020-11-29T21:44:39+00:00 fedora32.localdomain#00 I: 2 tests running: rna-transcription tests:1:transcribes cytidine, rna-transcription tests:0:transcribes empty list.
2020-11-29T21:44:39+00:00 fedora32.localdomain#01 I: Start test rna-transcription tests:0:transcribes empty list.
2020-11-29T21:44:39+00:00 fedora32.localdomain#00 I: 2 tests running: rna-transcription tests:1:transcribes cytidine, rna-transcription tests:0:transcribes empty list.
2020-11-29T21:44:39+00:00 fedora32.localdomain#01 I: Test rna-transcription tests:0:transcribes empty list is successful.
2020-11-29T21:44:39+00:00 fedora32.localdomain#00 I: 2 tests running: rna-transcription tests:1:transcribes cytidine, rna-transcription tests:0:transcribes empty list.
2020-11-29T21:44:39+00:00 fedora32.localdomain#01 I: End test rna-transcription tests:0:transcribes empty list.
2020-11-29T21:44:39+00:00 fedora32.localdomain#00 I: 2 tests running: rna-transcription tests:1:transcribes cytidine, rna-transcription tests:0:transcribes empty list.
2020-11-29T21:44:39+00:00 fedora32.localdomain#00 I: 2 tests running: rna-transcription tests:2:transcribes guanosine, rna-transcription tests:1:transcribes cytidine.
2020-11-29T21:44:39+00:00 fedora32.localdomain#01 I: Start test rna-transcription tests:2:transcribes guanosine.
2020-11-29T21:44:39+00:00 fedora32.localdomain#00 I: 2 tests running: rna-transcription tests:2:transcribes guanosine, rna-transcription tests:1:transcribes cytidine.
2020-11-29T21:44:39+00:00 fedora32.localdomain#01 I: Test rna-transcription tests:2:transcribes guanosine is successful.
2020-11-29T21:44:39+00:00 fedora32.localdomain#00 I: 2 tests running: rna-transcription tests:2:transcribes guanosine, rna-transcription tests:1:transcribes cytidine.
2020-11-29T21:44:39+00:00 fedora32.localdomain#01 I: End test rna-transcription tests:2:transcribes guanosine.
2020-11-29T21:44:39+00:00 fedora32.localdomain#00 I: 2 tests running: rna-transcription tests:2:transcribes guanosine, rna-transcription tests:1:transcribes cytidine.
2020-11-29T21:44:39+00:00 fedora32.localdomain#00 I: 2 tests running: rna-transcription tests:3:transcribes adenosie, rna-transcription tests:1:transcribes cytidine.
2020-11-29T21:44:39+00:00 fedora32.localdomain#01 I: Start test rna-transcription tests:3:transcribes adenosie.
2020-11-29T21:44:39+00:00 fedora32.localdomain#00 I: 2 tests running: rna-transcription tests:3:transcribes adenosie, rna-transcription tests:1:transcribes cytidine.
2020-11-29T21:44:39+00:00 fedora32.localdomain#01 I: Test rna-transcription tests:3:transcribes adenosie is successful.
2020-11-29T21:44:39+00:00 fedora32.localdomain#00 I: 2 tests running: rna-transcription tests:3:transcribes adenosie, rna-transcription tests:1:transcribes cytidine.
2020-11-29T21:44:39+00:00 fedora32.localdomain#01 I: End test rna-transcription tests:3:transcribes adenosie.
2020-11-29T21:44:39+00:00 fedora32.localdomain#00 I: 2 tests running: rna-transcription tests:3:transcribes adenosie, rna-transcription tests:1:transcribes cytidine.
2020-11-29T21:44:39+00:00 fedora32.localdomain#00 I: 2 tests running: rna-transcription tests:4:transcribes thymidine, rna-transcription tests:1:transcribes cytidine.
2020-11-29T21:44:39+00:00 fedora32.localdomain#01 I: Start test rna-transcription tests:4:transcribes thymidine.
2020-11-29T21:44:39+00:00 fedora32.localdomain#00 I: 2 tests running: rna-transcription tests:4:transcribes thymidine, rna-transcription tests:1:transcribes cytidine.
2020-11-29T21:44:39+00:00 fedora32.localdomain#02 I: Start test rna-transcription tests:1:transcribes cytidine.
2020-11-29T21:44:39+00:00 fedora32.localdomain#00 I: 2 tests running: rna-transcription tests:4:transcribes thymidine, rna-transcription tests:1:transcribes cytidine.
2020-11-29T21:44:39+00:00 fedora32.localdomain#01 I: Test rna-transcription tests:4:transcribes thymidine is successful.
2020-11-29T21:44:39+00:00 fedora32.localdomain#00 I: 2 tests running: rna-transcription tests:4:transcribes thymidine, rna-transcription tests:1:transcribes cytidine.
2020-11-29T21:44:39+00:00 fedora32.localdomain#01 I: End test rna-transcription tests:4:transcribes thymidine.
2020-11-29T21:44:39+00:00 fedora32.localdomain#00 I: 2 tests running: rna-transcription tests:4:transcribes thymidine, rna-transcription tests:1:transcribes cytidine.
2020-11-29T21:44:39+00:00 fedora32.localdomain#00 I: Still 2 tests running : rna-transcription tests:5:transcribes multiple, rna-transcription tests:1:transcribes cytidine.
2020-11-29T21:44:39+00:00 fedora32.localdomain#00 I: 2 tests running: rna-transcription tests:5:transcribes multiple, rna-transcription tests:1:transcribes cytidine.
2020-11-29T21:44:39+00:00 fedora32.localdomain#02 I: Test rna-transcription tests:1:transcribes cytidine is successful.
2020-11-29T21:44:39+00:00 fedora32.localdomain#00 I: Still 2 tests running : rna-transcription tests:5:transcribes multiple, rna-transcription tests:1:transcribes cytidine.
2020-11-29T21:44:39+00:00 fedora32.localdomain#00 I: 2 tests running: rna-transcription tests:5:transcribes multiple, rna-transcription tests:1:transcribes cytidine.
2020-11-29T21:44:39+00:00 fedora32.localdomain#01 I: Start test rna-transcription tests:5:transcribes multiple.
2020-11-29T21:44:39+00:00 fedora32.localdomain#00 I: Still 2 tests running : rna-transcription tests:5:transcribes multiple, rna-transcription tests:1:transcribes cytidine.
2020-11-29T21:44:39+00:00 fedora32.localdomain#00 I: 2 tests running: rna-transcription tests:5:transcribes multiple, rna-transcription tests:1:transcribes cytidine.
2020-11-29T21:44:39+00:00 fedora32.localdomain#02 I: End test rna-transcription tests:1:transcribes cytidine.
2020-11-29T21:44:39+00:00 fedora32.localdomain#00 I: Still 2 tests running : rna-transcription tests:5:transcribes multiple, rna-transcription tests:1:transcribes cytidine.
2020-11-29T21:44:39+00:00 fedora32.localdomain#00 I: 2 tests running: rna-transcription tests:5:transcribes multiple, rna-transcription tests:1:transcribes cytidine.
2020-11-29T21:44:39+00:00 fedora32.localdomain#00 I: Still 1 tests running : rna-transcription tests:5:transcribes multiple.
2020-11-29T21:44:39+00:00 fedora32.localdomain#00 I: 1 tests running: rna-transcription tests:5:transcribes multiple.
2020-11-29T21:44:39+00:00 fedora32.localdomain#01 I: Test rna-transcription tests:5:transcribes multiple is successful.
2020-11-29T21:44:39+00:00 fedora32.localdomain#00 I: Still 1 tests running : rna-transcription tests:5:transcribes multiple.
2020-11-29T21:44:39+00:00 fedora32.localdomain#00 I: 1 tests running: rna-transcription tests:5:transcribes multiple.
2020-11-29T21:44:39+00:00 fedora32.localdomain#01 I: End test rna-transcription tests:5:transcribes multiple.
2020-11-29T21:44:39+00:00 fedora32.localdomain#00 I: Still 1 tests running : rna-transcription tests:5:transcribes multiple.
2020-11-29T21:44:39+00:00 fedora32.localdomain#00 I: 1 tests running: rna-transcription tests:5:transcribes multiple.
2020-11-29T21:44:39+00:00 fedora32.localdomain#00 I: 0 tests running: .
2020-11-29T21:44:39+00:00 fedora32.localdomain#00 I: Worker fedora32.localdomain#01 has ended.
2020-11-29T21:44:39+00:00 fedora32.localdomain#00 I: Worker fedora32.localdomain#02 died unexpectedly.
2020-11-29T21:44:39+00:00 fedora32.localdomain#00 I: Used 2 worker during test execution.
2020-11-29T21:44:39+00:00 fedora32.localdomain#00 I: Run 1 tests with shard fedora32.localdomain#02.
2020-11-29T21:44:39+00:00 fedora32.localdomain#00 I: Run 5 tests with shard fedora32.localdomain#01.
2020-11-29T21:44:39+00:00 fedora32.localdomain#00 I: Check health of shard fedora32.localdomain#02, 5 times.
2020-11-29T21:44:39+00:00 fedora32.localdomain#00 I: Check health of shard fedora32.localdomain#01, 1 times.
2020-11-29T21:44:39+00:00 fedora32.localdomain#00 I: ==============
2020-11-29T21:44:39+00:00 fedora32.localdomain#00 I: Summary:
2020-11-29T21:44:39+00:00 fedora32.localdomain#00 I: Test rna-transcription tests:5:transcribes multiple is successful.
2020-11-29T21:44:39+00:00 fedora32.localdomain#00 I: Test rna-transcription tests:1:transcribes cytidine is successful.
2020-11-29T21:44:39+00:00 fedora32.localdomain#00 I: Test rna-transcription tests:4:transcribes thymidine is successful.
2020-11-29T21:44:39+00:00 fedora32.localdomain#00 I: Test rna-transcription tests:3:transcribes adenosie is successful.
2020-11-29T21:44:39+00:00 fedora32.localdomain#00 I: Test rna-transcription tests:2:transcribes guanosine is successful.
2020-11-29T21:44:39+00:00 fedora32.localdomain#00 I: Test rna-transcription tests:0:transcribes empty list is successful.
2020-11-29T21:44:39+00:00 fedora32.localdomain#00 I: Ran: 6 tests in: 0.13 seconds.
2020-11-29T21:44:39+00:00 fedora32.localdomain#00 I: Cases: 6.
2020-11-29T21:44:39+00:00 fedora32.localdomain#00 I: Tried: 6.
2020-11-29T21:44:39+00:00 fedora32.localdomain#00 I: Errors: 0.
2020-11-29T21:44:39+00:00 fedora32.localdomain#00 I: Failures: 0.
2020-11-29T21:44:39+00:00 fedora32.localdomain#00 I: Skip: 0.
2020-11-29T21:44:39+00:00 fedora32.localdomain#00 I: Todo: 0.
2020-11-29T21:44:39+00:00 fedora32.localdomain#00 I: Timeout: 0.
